{
  "project_info": {
    "project_number": "852478131412",
    "firebase_url": "https://gcp-tutorials-289512.firebaseio.com",
    "project_id": "gcp-tutorials-289512",
    "storage_bucket": "gcp-tutorials-289512.appspot.com"
  },
  "client": [
    {
      "client_info": {
        "mobilesdk_app_id": "1:852478131412:android:578dc4d711a98756f94f41",
        "android_client_info": {
          "package_name": "fakta.ayu.appx0d"
        }
      },
      "oauth_client": [
        {
          "client_id": "852478131412-9s32l4uiamrineveh3nj181tu16cabvb.apps.googleusercontent.com",
          "client_type": 3
        }
      ],
      "api_key": [
        {
          "current_key": "AIzaSyBT-vTXXFVO43Lx0_IHavyfUT7YCC12HRs"
        }
      ],
      "services": {
        "appinvite_service": {
          "other_platform_oauth_client": [
            {
              "client_id": "852478131412-9s32l4uiamrineveh3nj181tu16cabvb.apps.googleusercontent.com",
              "client_type": 3
            }
          ]
        }
      }
    }
  ],
  "configuration_version": "1"
}